Texas:,,,,,,
Population:,29000000,,,,,
,,,,,,
Date,New Cases,Total Cases,New Deaths,Total Death,New Tested,Total Tested
3/2,0,0,0,0,,
3/3,0,0,0,0,,
3/4,6,6,0,0,,
3/5,0,6,0,0,,
3/6,0,6,0,0,,
3/7,8,14,0,0,,
3/8,0,14,0,0,,
3/9,0,14,0,0,,
3/10,0,14,0,0,,
3/11,0,14,0,0,,
3/12,0,14,0,0,,
3/13,0,14,0,0,,
3/14,35,49,0,0,,
3/15,0,49,0,0,,
3/16,8,57,2,2,,
3/17,20,77,2,4,,
3/18,27,104,2,6,,
3/19,67,171,3,9,,
3/20,60,231,0,9,,
3/21,29,260,0,9,,
3/22,25,285,4,13,,
3/23,425,710,3,16,,
3/24,263,973,3,19,,
3/25,419,1392,7,26,,
3/26,337,1729,6,32,,
3/27,317,2046,5,37,,
3/28,504,2550,8,45,,
3/29,322,2872,5,50,,
3/30,392,3264,4,54,,
3/31,730,3994,18,72,,
4/1,669,4663,12,84,,
4/2,659,5322,19,103,,
4/3,788,6110,18,121,,63800
4/4,681,6791,23,144,7100,70900
4/5,480,7271,15,159,14500,85400
4/6,988,8259,15,174,3200,88600
4/7,1092,9351,24,198,7700,96300
4/8,877,10228,23,221,9800,106100
4/9,1441,11669,28,249,9800,115900
4/10,890,12559,29,278,4600,120500
4/11,923,13482,18,296,4100,124600
4/12,422,13904,17,313,8600,133200
4/13,718,14622,32,345,13300,146500
4/14,868,15490,47,392,5300,151800
4/15,963,16453,30,422,6700,158500
4/16,916,17369,36,458,11000,169500
4/17,889,18258,26,484,6700,176200
4/18,663,18921,25,509,6500,182700
4/19,535,19456,19,528,7700,190400
4/20,738,20194,23,551,15000,205400
4/21,873,21067,25,576,11400,216800
4/22,875,21942,21,597,8300,225100
4/23,862,22804,33,630,17400,242500
4/24,967,23771,31,661,20300,262800
4/25,858,24629,25,686,13200,276000
4/26,666,25295,15,701,14500,290500
4/27,874,26169,27,728,9900,300400
4/28,883,27052,42,770,14400,314800
4/29,1033,28085,50,820,15500,330300
4/30,1142,29227,34,854,21500,351800
5/1,1293,30520,31,885,28800,380600
5/2,1026,31546,20,905,10000,390600
5/3,784,32330,17,922,16800,407400
5/4,1037,33367,22,944,19800,427200
5/5,1053,34420,42,986,11700,438900
5/6,968,35388,25,1011,16300,455200
5/7,1219,36607,31,1042,21900,477100
5/8,1251,37858,45,1087,12000,489100
5/9,1009,38867,39,1126,24900,514000
5/10,1000,39867,12,1138,11700,525700
5/11,1179,41046,33,1171,12500,538200
5/12,1355,42401,25,1196,49300,587500
5/13,1448,43849,58,1254,35800,623300
5/14,1347,45196,56,1310,22700,646000
5/15,1801,46997,33,1343,32400,678400
5/16,785,47782,31,1374,14900,693300
5/17,909,48691,11,1385,29700,723000
5/18,1219,49910,22,1407,21900,744900
5/19,1411,51321,50,1457,25300,770200
5/20,945,52266,21,1478,30300,800500
5/21,1181,53447,40,1518,33900,834400
5/22,1060,54507,26,1544,36500,870900
5/23,839,55346,13,1557,15500,886400
5/24,623,55969,8,1565,19600,906000
5/25,589,56558,9,1574,37300,943300
5/26,1361,57919,26,1600,18500,961800
5/27,1855,59774,39,1639,28200,990000
5/28,1230,61004,25,1664,37400,1027400
5/29,1332,62336,22,1686,27400,1054800
5/30,1949,64285,24,1710,18700,1073500
5/31,593,64878,6,1716,20200,1093700
6/1,1688,66566,20,1736,16800,1110500
6/2,1703,68269,36,1772,11800,1122300
6/3,1651,69920,33,1805,11100,1133400
6/4,1693,71613,21,1826,12500,1145900
6/5,1940,73553,31,1857,12600,1158500
6/6,1425,74978,11,1868,,
6/7,,74978,,1868,,
6/8,,74978,,1868,,
6/9,,74978,,1868,,
6/10,,74978,,1868,,
6/11,,74978,,1868,,
6/12,,74978,,1868,,
6/13,,74978,,1868,,
6/14,,74978,,1868,,
6/15,,74978,,1868,,
6/16,,74978,,1868,,
6/17,,74978,,1868,,
6/18,,74978,,1868,,
6/19,,74978,,1868,,
,,74978,,1868,,